{
    "KPackageStructure": "Plasma/Applet",
    "KPlugin": {
        "Authors": [
            {
                "Email": "mart@kde.org",
                "Name": "Marco Martin",
                "Name[az]": "Marco Martin",
                "Name[be]": "Marco Martin",
                "Name[bg]": "Marco Martin",
                "Name[ca@valencia]": "Marco Martin",
                "Name[ca]": "Marco Martin",
                "Name[cs]": "Marco Martin",
                "Name[en_GB]": "Marco Martin",
                "Name[es]": "Marco Martin",
                "Name[eu]": "Marco Martin",
                "Name[fi]": "Marco Martin",
                "Name[fr]": "Marco Martin",
                "Name[ia]": "Marco Martin",
                "Name[id]": "Marco Martin",
                "Name[it]": "Marco Martin",
                "Name[ka]": "Marco Martin",
                "Name[ko]": "Marco Martin",
                "Name[nl]": "Marco Martin",
                "Name[nn]": "Marco Martin",
                "Name[pl]": "Marco Martin",
                "Name[pt]": "Marco Martin",
                "Name[pt_BR]": "Marco Martin",
                "Name[ru]": "Marco Martin",
                "Name[sl]": "Marco Martin",
                "Name[sv]": "Marco Martin",
                "Name[tr]": "Marco Martin",
                "Name[uk]": "Marco Martin",
                "Name[vi]": "Marco Martin",
                "Name[x-test]": "xxMarco Martinxx",
                "Name[zh_CN]": "Marco Martin"
            }
        ],
        "Category": "",
        "Id": "org.kde.example.testcontainment",
        "License": "GPLv2+",
        "Name": "Containment Test",
        "Name[az]": "Konteyner testi",
        "Name[be]": "Тэставанне кантэйнера",
        "Name[bg]": "Тест на съдържание",
        "Name[ca@valencia]": "Prova de contenidor",
        "Name[ca]": "Prova de contenidor",
        "Name[en_GB]": "Containment Test",
        "Name[es]": "Prueba de contenedor",
        "Name[eu]": "Konfinamendu-proba",
        "Name[fi]": "Säilötesti",
        "Name[fr]": "Test de confinement",
        "Name[ia]": "Essayo de Containment",
        "Name[id]": "Uji Containment",
        "Name[it]": "Prova del contenitore",
        "Name[ka]": "შეკავების ტესტი",
        "Name[ko]": "컨테이너 테스트",
        "Name[nl]": "Test van container",
        "Name[nn]": "Behaldartest",
        "Name[pl]": "Próba pojemnika",
        "Name[pt]": "Teste do Contentor",
        "Name[pt_BR]": "Teste de contêiner",
        "Name[ru]": "Тест контейнеров",
        "Name[sl]": "Preizkus vsebnikov",
        "Name[sv]": "Omgivningstest",
        "Name[tr]": "Kapsama Sınaması",
        "Name[uk]": "Перевірка контейнера",
        "Name[vi]": "Kiểm thử việc bao chứa",
        "Name[x-test]": "xxContainment Testxx",
        "Name[zh_CN]": "容器测试",
        "Version": "",
        "Website": ""
    },
    "Keywords": "",
    "X-KDE-ParentApp": "",
    "X-Plasma-API": "declarativeappletscript",
    "X-Plasma-MainScript": "ui/main.qml"
}
